"CODE","TEXT","ANSWER_TYPE","IS_MULTI_SELECT","IS_GRID","RISK_FACTOR"
"??/KYCB","Does your business serve consumers, businesses or both?","??","0","0",
"BeneOwnerInfo/PercentIndYes/KYCB","Are there any owners of the business with an ownership of greater than 25% who will not be signing on the accounts?","YN","0","0",
"ForeignBusiness/AcctPurpose/KYCB","Why does the non-U.S. entity wish to open an account with Bank of the West? ","Free Text","0","0",
"ForeignBusiness/ForeignLocations/KYCB","How many locations/offices does the business operate? ","Lookup","0","0",
"ForeignBusiness/HeadquarterCountry/KYCB","Please select the country or countries.","Country List","0","0","63 - Business Headquarters Countries Risk"
"ForeignBusiness/IsCountryRegistered/KYCB","Is the Non-US entity registered to conduct business in the country in which it is conducting business?","YN","0","0",
"ForeignBusiness/IsStateRegistered/KYCB","Is the non-U.S. entity registered to conduct business in a state within our market? ","YN","0","0",
"ForeignBusiness/PhysicalLocationCountry/KYCB","Please select the country or countries.","Country List","0","0","64- Business Location Countries Risk"
"ForeignBusiness/USBizYes /KYCB","Is the business/entity conducting business outside of the US?","YN","0","0",
"ForeignBusiness/USEntityYes /KYCB","Is the business/entity headquartered outside of the US?","YN","0","0",
"Gambling/AnnualRevenue/KYCB","What is your average annual revenue (gross) from gambling services?","Lookup","0","0",
"Gambling/CustomerCountry/KYCB","In which countries do you operate? More specifically, if you operate outside of the countries where you are physically located, in which countries are your customers located (Please list all)?","Country List","1","0",
"Gambling/InternetGamblingComplyUIGEA/KYCB","Do these services comply with the Unlawful Internet Gambling Enforcement Act of 2006?","YN","0","0",
"Gambling/InternetGamblingComplyUIGEA/SupportingDocs/KYCB","If Yes, Please provide supporting documentation or information to support this.","Free Text","0","0",
"Gambling/InternetGamblingOfferedType/KYCB","What types of internet gambling services do you offer?","Lookup","0","0",
"Gambling/InternetGamblingOfferedTypeOther/KYCB","If other, please describe.","Free Text","0","0",
"Gambling/InternetGamblingPaymentType/KYCB","Which forms of payment are accepted from your internet gambling customers?","Lookup","0","0",
"Gambling/InternetGamblingPaymentTypeOther/KYCB","If other, please describe.","Free Text","0","0",
"Gambling/InternetGamblingProvider/KYCB","Do you provide Internet gambling services within the United States and/or to individuals residing in the US?","YN","0","0",
"Gambling/IsGamblingOperator/KYCB","Is the business classified as gambling, import/export, international, gaming or do they provide lottery services or lottery tickets?","YN","0","0",
"Gambling/LicensedCountry/KYCB","In which country or countries are you licensed to conduct business?","Country List","0","0",
"Gambling/LicensedInd/KYCB","Does your business have a valid gambling license?","YN","0","0",
"Gambling/LicensedService/KYCB","Which services does the license allow your business to conduct?","Lookup","0","0",
"Gambling/LicensedStateUS/KYCB","If US, in which state(s) are you licensed to conduct business?","State List","0","0",
"Gambling/NonGamblingSvcs/KYCB","If yes, please describe.","Free Text","0","0",
"Gambling/OffersNonGamblingSvcs/KYCB","Does your business offer other products or services in addition to your gambling services?","YN","0","0",
"IssuedIdent/IdType/KYCB","Business Identification","Lookup","0","0",
"IssuedIdent/IssueDt/KYCB","Date of Issuance","Date","0","0",
"IssuedIdent/Issuer/KYCB","Issuer","Free Text","0","0",
"IssuedIdent/IssuerState/KYCB","State of Issuance","State List","0","0",
"Org/AnnualSales/KYCB","What are the approximate (gross) annual sales of the business?","Lookup","0","0",
"Org/BusinessIdentificationOther/KYCB","If Other, describe.","Free Text","0","0",
"Org/EstablishDt/KYCB","What year was the entity organized?","Date","0","0",
"Org/EstablishDt360days/KYCB","Was the business established within the last calendar year?","YN","0","0","62 - Business Operational History Risk"
"Org/HidtaFlag/KYCB","Is the customer located in a HIDTA?","YesNo","0","0",
"Org/HidtaFlag/KYCB","Is the customer located in a HIDTA?","YesNo","0","0","1 - Geographic Risk"
"Org/HifcaFlag/KYCB","Is the customer located in a HIFCA?","YesNo","0","0",
"Org/HifcaFlag/KYCB","Is the customer located in a HIFCA?","YesNo","0","0","1 - Geographic Risk 2"
"Org/LegalForm/KYCB","What is the legal structure of the entity?","Lookup","0","0",
"Org/LegalFormOther/KYCB","If Other, describe.","Free Text","0","0",
"Org/NAICSOther/KYCB","If other, explain.","Free Text","0","0",
"Org/NonSigningOwner/Name/KYCB","Please list all individuals who have transactional authority over the company's finances who are not signers on the accounts.","Free Text","0","0",
"Org/OrgCountry/KYCB","In what country was the entity organized?","Country List","0","0","61 - Country Of Incorporation Risk"
"Org/OrgState/KYCB","In which state is the entity registered?","State List","0","0",
"Org/ProductSet/RiskLevelAppropriate/YN/KYCB","Does the amount and type of account appear reasonable given the nature of the customer's business?","YN","0","0",
"Org/ProductsServices/KYCB","What is the nature of your business and what types of products and services do you offer?","Free Text","0","0",
"Org/PubliclyTraded/KYCB","Are you a publicly traded company?","YesNo","0","0",
"Org/SourceSystemName/CIP","Source System","LOB List","0","0",
"Org/StockExchange/KYCB","What exchange is the company listed on?","Free Text","0","0",
"Org/StockSymbol/KYCB","What is the company's stock symbol?","Free Text","0","0",
"Org/WealthCustomer/YN/KYCB","Does the Client request Private Banking or Wealth Management Services?","YN","0","0",
"Org/WebsiteURL/CIP","Website","Free Text","0","0",
"OrgInfo/NAICSCodes/NAICSCode/KYCB","NAICS Code","NAICS List","0","0",
"PartyInfo/OrgKycInfo/OrgName/LegalName/CIP","Organization Name (Trust Name in case of Trust)","Free Text","0","0",
"PartyInfo/OrgKycInfo/OrgName/Name/CIP","DBA","Free Text","0","0",
"PartyInfo/TaxIdentification/TaxIdent/InProgressYN/CIP","Applied for TIN","YN","0","0",
"PartyInfo/TaxIdentification/TaxIdentValue/CIP","TIN","Free Text","0","0",
"PartyKeys/IdentValue/CIP","RM #","Free Text","0","0",
"PhoneNum/Phone/PrimaryAddress/CIP","Primary Phone","Free Text","0","0",
"PhoneNum/Phone/SecondaryAddress1/CIP","Primary Phone","Free Text","0","0",
"PhoneNum/Phone/SecondaryAddress2/CIP","Primary Phone","Free Text","0","0",
"PostAddr/Addr1/PrimaryAddress/CIP","Street Address (No PO Box)","Free Text","0","0",
"PostAddr/Addr1/SecondaryAddress1/CIP","Street Address (No PO Box)","Free Text","0","0",
"PostAddr/Addr1/SecondaryAddress2/CIP","Street Address (No PO Box)","Free Text","0","0",
"PostAddr/Addr2/PrimaryAddress/CIP","Address Line 2","Free Text","0","0",
"PostAddr/Addr2/SecondaryAddress1/CIP","Address Line 2","Free Text","0","0",
"PostAddr/Addr2/SecondaryAddress2/CIP","Address Line 2","Free Text","0","0",
"PostAddr/Addr3/PrimaryAddress/CIP","Address Line 3","Free Text","0","0",
"PostAddr/Addr3/SecondaryAddress1/CIP","Address Line 3","Free Text","0","0",
"PostAddr/Addr3/SecondaryAddress2/CIP","Address Line 3","Free Text","0","0",
"PostAddr/City/PrimaryAddress/CIP","City","Free Text","0","0",
"PostAddr/City/SecondaryAddress1/CIP","City","Free Text","0","0",
"PostAddr/City/SecondaryAddress2/CIP","City","Free Text","0","0",
"PostAddr/CountryCode/PrimaryAddress/CIP","Country","Country List","0","0",
"PostAddr/CountryCode/SecondaryAddress1/CIP","Country","Country List","0","0",
"PostAddr/CountryCode/SecondaryAddress2/CIP","Country","Country List","0","0",
"PostAddr/PostalCode/PrimaryAddress/CIP","Postal Code","Free Text","0","0",
"PostAddr/PostalCode/SecondaryAddress1/CIP","Postal Code","Free Text","0","0",
"PostAddr/PostalCode/SecondaryAddress2/CIP","Postal Code","Free Text","0","0",
"PostAddr/StateProv/PrimaryAddress/CIP","State","Demographic State List","0","0",
"PostAddr/StateProv/SecondaryAddress1/CIP","State","State List","0","0",
"PostAddr/StateProv/SecondaryAddress2/CIP","State","State List","0","0",
"TPPP/AnticipatedActivity/KYCB","What type of TPPP activity does the customer anticipate?","Lookup","0","0",
"TPPP/ChargebackPct/KYCB","What percentage of your transactions are charged back/returned?","Lookup","0","0",
"TPPP/CustomerPmtProcessingFreq/KYCB","How often does your business process payments for your customers?","Lookup","0","0",
"TPPP/CustomerType/KYCB","What types of clients do you serve?","Lookup","1","0",
"TPPP/HasPrimaryCustomer/KYCB","Do you have any customers that account for more than 50% of your overall business?","YN","0","0",
"TPPP/HasVirtualCustomers/KYCB","Do you provide these services to merchants or business entities that do not have a physical presence/location (i.e. internet merchants)?","YN","0","0",
"TPPP/IndustryType/KYCB","Does your business serve a particular industry?","Lookup","1","0",
"TPPP/IsRegulated/KYCB","Is the TPPP a regulated entity? (ex. Non-bank financial institution regulated by IRS, FINRA, etc.)","YN","0","0",
"TPPP/IsThirdPtyPmtProcessor/KYCB","Does the business act as a third-party payment processor? ","YesNo","0","0",
"TPPP/MonthlyAvgDollarTransVolume/KYCB","What is the average monthly dollar volume of transactions processed by your organization?","Lookup","0","0",
"TPPP/PmtsProcessedByISO/KYCB","Do you have an arrangement with another third party to process your payments?","YN","0","0",
"TPPP/PrimaryCustomer/KYCB","If yes, who is that customer?","Free Text","0","0",
"TPPP/ProcessedTransAmtAvgMthly/KYCB","What is the average monthly number of transactions processed by your organization?","Lookup","0","0",
"TPPP/ProvideTPPPOutsideUS/KYCB","Do you offer TPPP services outside of the U.S?","YN","0","0",
"TPPP/UseBotwACH/KYCB","Will you request ACH origination servies?","YN","0","0",
"Trust/TrusteeConnectionToAcct/KYCB","What connection does the non-U.S. entity have to our market area? ","Lookup","0","0",
"Trust/TrusteeConnectionToAcctOther/KYCB","If ""Other"", please describe:","Free Text","0","0",
